; Engine configuration file.
; It's best edited using the editor UI and not directly,
; since the parameters that go here are not all obvious.
;
; Format:
;   [section] ; section goes between []
;   param=value ; assign values to parameters

config_version=4

_global_script_classes=[ {
"base": "RigidBody2D",
"class": "Bullet",
"language": "GDScript",
"path": "res://player/bullet.gd"
}, {
"base": "Player",
"class": "Enemy",
"language": "GDScript",
"path": "res://enemy/enemy.gd"
}, {
"base": "RigidBody2D",
"class": "Player",
"language": "GDScript",
"path": "res://player/player.gd"
} ]
_global_script_class_icons={
"Bullet": "",
"Enemy": "",
"Player": ""
}

[application]

config/name="Galactic Monsters"
run/main_scene="res://worlds/world1.tscn"

[input]

invert={
"deadzone": 0.5,
"events": [ Object(InputEventKey,"resource_local_to_scene":false,"resource_name":"","device":0,"alt":false,"shift":false,"control":false,"meta":false,"command":false,"pressed":false,"scancode":16777221,"physical_scancode":0,"unicode":0,"echo":false,"script":null)
 ]
}
shoot={
"deadzone": 0.5,
"events": [ Object(InputEventKey,"resource_local_to_scene":false,"resource_name":"","device":0,"alt":false,"shift":false,"control":false,"meta":false,"command":false,"pressed":false,"scancode":32,"physical_scancode":0,"unicode":0,"echo":false,"script":null)
 ]
}

[physics]

common/enable_pause_aware_picking=true
2d/default_gravity=0
2d/default_gravity_vector=Vector2( 0, 0 )

[rendering]

quality/driver/driver_name="GLES2"
