[gd_scene load_steps=3 format=2]

[ext_resource path="res://worlds/template/World.tscn" type="PackedScene" id=1]
[ext_resource path="res://worlds/pieces/planet.tscn" type="PackedScene" id=2]

[node name="World" instance=ExtResource( 1 )]

[node name="player" parent="." index="1"]
position = Vector2( 13.9874, -332.96 )

[node name="planet1" parent="." index="2" instance=ExtResource( 2 )]
scale = Vector2( 3.92, 3.92 )

[node name="planet2" parent="." index="3" instance=ExtResource( 2 )]
position = Vector2( -864.589, -37.7549 )
scale = Vector2( 3.92, 3.92 )

[node name="planet3" parent="." index="4" instance=ExtResource( 2 )]
position = Vector2( 1073.17, 1083.57 )
scale = Vector2( 3.92, 3.92 )
